/Users/dangnguyen/AnypointStudio/workspaces/TESAMM3/epicor-connector/target/generated-sources/mule/org/mule/modules/epicor/generated/adapters/EpicorConnectorCapabilitiesAdapter.java
/Users/dangnguyen/AnypointStudio/workspaces/TESAMM3/epicor-connector/target/generated-sources/mule/org/mule/modules/epicor/generated/config/EpicorConnectorConnectorConfigConfigDefinitionParser.java
/Users/dangnguyen/AnypointStudio/workspaces/TESAMM3/epicor-connector/target/generated-sources/mule/org/mule/modules/epicor/generated/adapter/PoolManager.java
/Users/dangnguyen/AnypointStudio/workspaces/TESAMM3/epicor-connector/target/generated-sources/mule/org/mule/modules/epicor/generated/adapters/EpicorConnectorMetadataAdapter.java
/Users/dangnguyen/AnypointStudio/workspaces/TESAMM3/epicor-connector/target/generated-sources/mule/org/mule/modules/epicor/generated/agents/DefaultSplashScreenAgent.java
/Users/dangnguyen/AnypointStudio/workspaces/TESAMM3/epicor-connector/src/main/java/org/mule/modules/epicor/config/ConnectorConfig.java
/Users/dangnguyen/AnypointStudio/workspaces/TESAMM3/epicor-connector/target/generated-sources/mule/org/mule/modules/epicor/generated/adapters/EpicorConnectorConnectorConfigWsdlProviderAdapter.java
/Users/dangnguyen/AnypointStudio/workspaces/TESAMM3/epicor-connector/target/generated-sources/mule/org/mule/modules/epicor/generated/adapters/EpicorConnectorProcessAdapter.java
/Users/dangnguyen/AnypointStudio/workspaces/TESAMM3/epicor-connector/target/generated-sources/mule/org/mule/modules/epicor/generated/config/EpicorNamespaceHandler.java
/Users/dangnguyen/AnypointStudio/workspaces/TESAMM3/epicor-connector/src/main/java/org/mule/modules/epicor/EpicorConnector.java
/Users/dangnguyen/AnypointStudio/workspaces/TESAMM3/epicor-connector/target/generated-sources/mule/org/mule/modules/epicor/generated/adapters/EpicorConnectorLifecycleInjectionAdapter.java
/Users/dangnguyen/AnypointStudio/workspaces/TESAMM3/epicor-connector/target/generated-sources/mule/org/mule/tooling/ui/contribution/EpicorActivator.java
/Users/dangnguyen/AnypointStudio/workspaces/TESAMM3/epicor-connector/target/generated-sources/mule/org/mule/modules/epicor/generated/devkit/SplashScreenAgent.java
