{
    "inputMessageMetadata": {},
    "outputMessageMetadata": {
        "messagePayload": {
            "connectorName": "#_custom_mule_metadata_type_#",
            "typeId": "getById"
        }
    },
    "id": "a8393ca8-108f-4bd7-a11b-2475d7ee72a4",
    "version": "5.2.0.0"
}