{
    "inputMessageMetadata": {
        "messagePayload": {
            "connectorName": "#_custom_mule_metadata_type_#",
            "typeId": "getById_PurchaseOrder"
        }
    },
    "outputMessageMetadata": {
        "messagePayload": {
            "connectorName": "#_custom_mule_metadata_type_#",
            "typeId": "getById_PurchaseOrder"
        }
    },
    "id": "d067af8b-b27e-4623-a290-0eef0540322d",
    "version": "5.2.0.0"
}